{
  "extends": "../../../tslint.json",
  "rules": {
    "directive-selector": [true, "attribute", "cdk", "camelCase"],
    "component-selector": [true, "element", "cdk", "kebab-case"]
  },
  "linterOptions": {
    "exclude": ["!**/*"]
  }
}
